0 info it worked if it ends with ok
1 verbose cli [ '/usr/bin/nodejs', '/usr/bin/npm', 'start' ]
2 info using npm@3.8.3
3 info using node@v5.10.1
4 verbose run-script [ 'prestart', 'start', 'poststart' ]
5 info lifecycle fld-questions@1.0.0~prestart: fld-questions@1.0.0
6 silly lifecycle fld-questions@1.0.0~prestart: no script for prestart, continuing
7 info lifecycle fld-questions@1.0.0~start: fld-questions@1.0.0
8 verbose lifecycle fld-questions@1.0.0~start: unsafe-perm in lifecycle true
9 verbose lifecycle fld-questions@1.0.0~start: PATH: /usr/lib/node_modules/npm/bin/node-gyp-bin:/home/sam/SyncDocs/fld-services/fld-questions/node_modules/.bin:/usr/bin:/home/sam/.npm-packages/bin:/home/sam/SyncDocs/bin:/opt/infinit/bin:/usr/local/bin:/usr/local/sbin:/usr/sbin:/usr/bin:/sbin:/bin:/usr/games:/usr/local/games
10 verbose lifecycle fld-questions@1.0.0~start: CWD: /home/sam/SyncDocs/fld-services/fld-questions
11 silly lifecycle fld-questions@1.0.0~start: Args: [ '-c', 'node index.js' ]
12 silly lifecycle fld-questions@1.0.0~start: Returned: code: 1  signal: null
13 info lifecycle fld-questions@1.0.0~start: Failed to exec start script
14 verbose stack Error: fld-questions@1.0.0 start: `node index.js`
14 verbose stack Exit status 1
14 verbose stack     at EventEmitter.<anonymous> (/usr/lib/node_modules/npm/lib/utils/lifecycle.js:239:16)
14 verbose stack     at emitTwo (events.js:100:13)
14 verbose stack     at EventEmitter.emit (events.js:185:7)
14 verbose stack     at ChildProcess.<anonymous> (/usr/lib/node_modules/npm/lib/utils/spawn.js:24:14)
14 verbose stack     at emitTwo (events.js:100:13)
14 verbose stack     at ChildProcess.emit (events.js:185:7)
14 verbose stack     at maybeClose (internal/child_process.js:850:16)
14 verbose stack     at Process.ChildProcess._handle.onexit (internal/child_process.js:215:5)
15 verbose pkgid fld-questions@1.0.0
16 verbose cwd /home/sam/SyncDocs/fld-services/fld-questions
17 error Linux 4.5.0-040500rc7-generic
18 error argv "/usr/bin/nodejs" "/usr/bin/npm" "start"
19 error node v5.10.1
20 error npm  v3.8.3
21 error code ELIFECYCLE
22 error fld-questions@1.0.0 start: `node index.js`
22 error Exit status 1
23 error Failed at the fld-questions@1.0.0 start script 'node index.js'.
23 error Make sure you have the latest version of node.js and npm installed.
23 error If you do, this is most likely a problem with the fld-questions package,
23 error not with npm itself.
23 error Tell the author that this fails on your system:
23 error     node index.js
23 error You can get information on how to open an issue for this project with:
23 error     npm bugs fld-questions
23 error Or if that isn't available, you can get their info via:
23 error     npm owner ls fld-questions
23 error There is likely additional logging output above.
24 verbose exit [ 1, true ]
